Nov-09 14:43:29.868 [main] DEBUG nextflow.cli.Launcher - $> nextflow ./startcodon2.nf --infile ../cq-examples/data/sequences.fasta --outdir /home/nico/ngsmodule/my_nextflow/sequence_count
Nov-09 14:43:30.018 [main] INFO  nextflow.cli.CmdRun - N E X T F L O W  ~  version 21.04.3
Nov-09 14:43:30.045 [main] INFO  nextflow.cli.CmdRun - Launching `./startcodon2.nf` [intergalactic_hamilton] - revision: 4eec0fb517
Nov-09 14:43:30.065 [main] DEBUG nextflow.config.ConfigBuilder - Found config local: /home/nico/ngsmodule/my_nextflow/nextflow.config
Nov-09 14:43:30.066 [main] DEBUG nextflow.config.ConfigBuilder - Parsing config file: /home/nico/ngsmodule/my_nextflow/nextflow.config
Nov-09 14:43:30.098 [main] DEBUG nextflow.config.ConfigBuilder - Applying config profile: `standard`
Nov-09 14:43:30.841 [main] DEBUG nextflow.plugin.PluginsFacade - Setting up plugin manager > mode=prod; plugins-dir=/home/nico/.nextflow/plugins
Nov-09 14:43:30.843 [main] DEBUG nextflow.plugin.PluginsFacade - Plugins default=[]
Nov-09 14:43:30.847 [main] DEBUG nextflow.plugin.PluginsFacade - Plugins local root: .nextflow/plr/empty
Nov-09 14:43:30.857 [main] INFO  org.pf4j.DefaultPluginStatusProvider - Enabled plugins: []
Nov-09 14:43:30.859 [main] INFO  org.pf4j.DefaultPluginStatusProvider - Disabled plugins: []
Nov-09 14:43:30.862 [main] INFO  org.pf4j.DefaultPluginManager - PF4J version 3.4.1 in 'deployment' mode
Nov-09 14:43:30.873 [main] INFO  org.pf4j.AbstractPluginManager - No plugins
Nov-09 14:43:30.935 [main] DEBUG nextflow.Session - Session uuid: 4b0f048c-db32-467d-977d-2ccc6574c859
Nov-09 14:43:30.935 [main] DEBUG nextflow.Session - Run name: intergalactic_hamilton
Nov-09 14:43:30.936 [main] DEBUG nextflow.Session - Executor pool size: 4
Nov-09 14:43:30.984 [main] DEBUG nextflow.cli.CmdRun - 
  Version: 21.04.3 build 5560
  Created: 21-07-2021 15:09 UTC (17:09 CEST)
  System: Linux 5.11.0-38-generic
  Runtime: Groovy 3.0.7 on OpenJDK 64-Bit Server VM 11.0.11+9-Ubuntu-0ubuntu2.20.04
  Encoding: UTF-8 (UTF-8)
  Process: 76557@nico-VirtualBox [127.0.1.1]
  CPUs: 4 - Mem: 3.8 GB (208.5 MB) - Swap: 2 GB (2 GB)
Nov-09 14:43:31.007 [main] DEBUG nextflow.Session - Work-dir: /home/nico/ngsmodule/my_nextflow/work [ext2/ext3]
Nov-09 14:43:31.007 [main] DEBUG nextflow.Session - Script base path does not exist or is not a directory: /home/nico/ngsmodule/my_nextflow/bin
Nov-09 14:43:31.018 [main] DEBUG nextflow.executor.ExecutorFactory - Extension executors providers=[]
Nov-09 14:43:31.031 [main] DEBUG nextflow.Session - Observer factory: DefaultObserverFactory
Nov-09 14:43:31.136 [main] DEBUG nextflow.Session - Session start invoked
Nov-09 14:43:31.634 [main] DEBUG nextflow.script.ScriptRunner - > Launching execution
Nov-09 14:43:31.677 [main] DEBUG nextflow.Session - Workflow process names [dsl2]: calculate_stop, calculate_start, split_file, start_codon_count, stop_codon_count
Nov-09 14:43:31.776 [main] DEBUG nextflow.executor.ExecutorFactory - << taskConfig executor: null
Nov-09 14:43:31.776 [main] DEBUG nextflow.executor.ExecutorFactory - >> processorType: 'local'
Nov-09 14:43:31.782 [main] DEBUG nextflow.executor.Executor - [warm up] executor > local
Nov-09 14:43:31.787 [main] DEBUG n.processor.LocalPollingMonitor - Creating local task monitor for executor 'local' > cpus=4; memory=3.8 GB; capacity=4; pollInterval=100ms; dumpInterval=5m
Nov-09 14:43:31.910 [main] DEBUG nextflow.executor.ExecutorFactory - << taskConfig executor: null
Nov-09 14:43:31.910 [main] DEBUG nextflow.executor.ExecutorFactory - >> processorType: 'local'
Nov-09 14:43:31.933 [main] DEBUG nextflow.executor.ExecutorFactory - << taskConfig executor: null
Nov-09 14:43:31.933 [main] DEBUG nextflow.executor.ExecutorFactory - >> processorType: 'local'
Nov-09 14:43:31.937 [main] DEBUG nextflow.Session - Ignite dataflow network (4)
Nov-09 14:43:31.960 [main] DEBUG nextflow.processor.TaskProcessor - Starting process > split_file
Nov-09 14:43:31.961 [main] DEBUG nextflow.processor.TaskProcessor - Starting process > start_codon_count
Nov-09 14:43:31.963 [main] DEBUG nextflow.processor.TaskProcessor - Starting process > calculate_start
Nov-09 14:43:31.965 [main] DEBUG nextflow.script.ScriptRunner - > Await termination 
Nov-09 14:43:31.965 [main] DEBUG nextflow.Session - Session await
Nov-09 14:43:32.150 [Task submitter] DEBUG nextflow.executor.LocalTaskHandler - Launch cmd line: /bin/bash -ue .command.run
Nov-09 14:43:32.157 [Task submitter] INFO  nextflow.Session - [9d/ee02d9] Submitted process > split_file (1)
Nov-09 14:43:32.188 [Task monitor] DEBUG n.processor.TaskPollingMonitor - Task completed > TaskHandler[id: 1; name: split_file (1); status: COMPLETED; exit: 0; error: -; workDir: /home/nico/ngsmodule/my_nextflow/work/9d/ee02d9d423942212c4988115e2e6d7]
Nov-09 14:43:32.234 [Task submitter] DEBUG nextflow.executor.LocalTaskHandler - Launch cmd line: /bin/bash -ue .command.run
Nov-09 14:43:32.235 [Task submitter] INFO  nextflow.Session - [5d/41313f] Submitted process > start_codon_count (1)
Nov-09 14:43:32.263 [Task submitter] DEBUG nextflow.executor.LocalTaskHandler - Launch cmd line: /bin/bash -ue .command.run
Nov-09 14:43:32.263 [Task submitter] INFO  nextflow.Session - [b8/fe9fa1] Submitted process > start_codon_count (3)
Nov-09 14:43:32.272 [Task submitter] DEBUG nextflow.executor.LocalTaskHandler - Launch cmd line: /bin/bash -ue .command.run
Nov-09 14:43:32.273 [Task submitter] INFO  nextflow.Session - [33/8e3676] Submitted process > start_codon_count (4)
Nov-09 14:43:32.280 [Task monitor] DEBUG n.processor.TaskPollingMonitor - Task completed > TaskHandler[id: 2; name: start_codon_count (1); status: COMPLETED; exit: 0; error: -; workDir: /home/nico/ngsmodule/my_nextflow/work/5d/41313ff94a4f6b71b6855f007e9d98]
Nov-09 14:43:32.281 [Task monitor] DEBUG nextflow.processor.TaskProcessor - Process `start_codon_count (1)` is unable to find [UnixPath]: `/home/nico/ngsmodule/my_nextflow/work/5d/41313ff94a4f6b71b6855f007e9d98/sequences.fasta.line00.wordcount` (pattern: `sequences.fasta.line00.wordcount`)
Nov-09 14:43:32.282 [Task submitter] DEBUG nextflow.executor.LocalTaskHandler - Launch cmd line: /bin/bash -ue .command.run
Nov-09 14:43:32.282 [Task submitter] INFO  nextflow.Session - [d8/4349a4] Submitted process > start_codon_count (2)
Nov-09 14:43:32.356 [Task monitor] ERROR nextflow.processor.TaskProcessor - Error executing process > 'start_codon_count (1)'

Caused by:
  Missing output file(s) `sequences.fasta.line00.wordcount` expected by process `start_codon_count (1)`

Command executed:

  tail - 1 sequences.fasta.line00 | grep -i -o ATG sequences.fasta.line00 >> grepresult || true
  cat grepresult | wc -l > sequences.fasta.line00.startcount

Command exit status:
  0

Command output:
  (empty)

Work dir:
  /home/nico/ngsmodule/my_nextflow/work/5d/41313ff94a4f6b71b6855f007e9d98

Tip: you can try to figure out what's wrong by changing to the process work dir and showing the script file named `.command.sh`
Nov-09 14:43:32.369 [Task monitor] DEBUG nextflow.Session - Session aborted -- Cause: Missing output file(s) `sequences.fasta.line00.wordcount` expected by process `start_codon_count (1)`
Nov-09 14:43:32.402 [Task monitor] DEBUG nextflow.Session - The following nodes are still active:
[process] calculate_start
  status=ACTIVE
  port 0: (value) OPEN  ; channel: infiles
  port 1: (cntrl) -     ; channel: $

Nov-09 14:43:32.406 [main] DEBUG nextflow.Session - Session await > all process finished
Nov-09 14:43:32.407 [main] DEBUG nextflow.Session - Session await > all barriers passed
Nov-09 14:43:32.414 [Task monitor] DEBUG n.processor.TaskPollingMonitor - Task completed > TaskHandler[id: 4; name: start_codon_count (3); status: COMPLETED; exit: 0; error: -; workDir: /home/nico/ngsmodule/my_nextflow/work/b8/fe9fa1bc062065c0bd736529c2e59e]
Nov-09 14:43:32.415 [Task monitor] DEBUG nextflow.processor.TaskProcessor - Process `start_codon_count (3)` is unable to find [UnixPath]: `/home/nico/ngsmodule/my_nextflow/work/b8/fe9fa1bc062065c0bd736529c2e59e/sequences.fasta.line02.wordcount` (pattern: `sequences.fasta.line02.wordcount`)
Nov-09 14:43:32.420 [Task monitor] DEBUG n.processor.TaskPollingMonitor - Task completed > TaskHandler[id: 5; name: start_codon_count (4); status: COMPLETED; exit: 0; error: -; workDir: /home/nico/ngsmodule/my_nextflow/work/33/8e367671cd0d496d1958c577c81db7]
Nov-09 14:43:32.427 [Task monitor] DEBUG nextflow.processor.TaskProcessor - Process `start_codon_count (4)` is unable to find [UnixPath]: `/home/nico/ngsmodule/my_nextflow/work/33/8e367671cd0d496d1958c577c81db7/sequences.fasta.line03.wordcount` (pattern: `sequences.fasta.line03.wordcount`)
Nov-09 14:43:32.428 [main] WARN  n.processor.TaskPollingMonitor - Killing pending tasks (1)
Nov-09 14:43:32.445 [main] DEBUG nextflow.executor.LocalTaskHandler - Unable to kill start_codon_count (2) -- command: kill -TERM 76677; exit: 1 
 bash: line 0: kill: (76677) - No such process

Nov-09 14:43:32.449 [main] DEBUG nextflow.trace.WorkflowStatsObserver - Workflow completed > WorkflowStats[succeededCount=1; failedCount=3; ignoredCount=0; cachedCount=0; pendingCount=0; submittedCount=1; runningCount=-1; retriesCount=0; abortedCount=1; succeedDuration=6ms; failedDuration=5ms; cachedDuration=0ms;loadCpus=-1; loadMemory=0; peakRunning=1; peakCpus=1; peakMemory=0; ]
Nov-09 14:43:32.583 [main] DEBUG nextflow.CacheDB - Closing CacheDB done
Nov-09 14:43:32.607 [main] DEBUG nextflow.script.ScriptRunner - > Execution complete -- Goodbye
