Nov-09 13:59:11.357 [main] DEBUG nextflow.cli.Launcher - $> nextflow ./startcodon2.nf --infile ../cq-examples/data/sequences.fasta --word TAG --word2 TAA --word3 TGA --outdir /home/nico/ngsmodule/my_nextflow/sequence_count
Nov-09 13:59:11.490 [main] INFO  nextflow.cli.CmdRun - N E X T F L O W  ~  version 21.04.3
Nov-09 13:59:11.516 [main] INFO  nextflow.cli.CmdRun - Launching `./startcodon2.nf` [sick_solvay] - revision: 2227dacdcd
Nov-09 13:59:11.547 [main] DEBUG nextflow.config.ConfigBuilder - Found config local: /home/nico/ngsmodule/my_nextflow/nextflow.config
Nov-09 13:59:11.548 [main] DEBUG nextflow.config.ConfigBuilder - Parsing config file: /home/nico/ngsmodule/my_nextflow/nextflow.config
Nov-09 13:59:11.576 [main] DEBUG nextflow.config.ConfigBuilder - Applying config profile: `standard`
Nov-09 13:59:12.231 [main] DEBUG nextflow.plugin.PluginsFacade - Setting up plugin manager > mode=prod; plugins-dir=/home/nico/.nextflow/plugins
Nov-09 13:59:12.232 [main] DEBUG nextflow.plugin.PluginsFacade - Plugins default=[]
Nov-09 13:59:12.235 [main] DEBUG nextflow.plugin.PluginsFacade - Plugins local root: .nextflow/plr/empty
Nov-09 13:59:12.243 [main] INFO  org.pf4j.DefaultPluginStatusProvider - Enabled plugins: []
Nov-09 13:59:12.244 [main] INFO  org.pf4j.DefaultPluginStatusProvider - Disabled plugins: []
Nov-09 13:59:12.249 [main] INFO  org.pf4j.DefaultPluginManager - PF4J version 3.4.1 in 'deployment' mode
Nov-09 13:59:12.260 [main] INFO  org.pf4j.AbstractPluginManager - No plugins
Nov-09 13:59:12.351 [main] DEBUG nextflow.Session - Session uuid: f8a7985b-fbe1-455f-8704-ee511d1ba111
Nov-09 13:59:12.352 [main] DEBUG nextflow.Session - Run name: sick_solvay
Nov-09 13:59:12.353 [main] DEBUG nextflow.Session - Executor pool size: 4
Nov-09 13:59:12.393 [main] DEBUG nextflow.cli.CmdRun - 
  Version: 21.04.3 build 5560
  Created: 21-07-2021 15:09 UTC (17:09 CEST)
  System: Linux 5.11.0-38-generic
  Runtime: Groovy 3.0.7 on OpenJDK 64-Bit Server VM 11.0.11+9-Ubuntu-0ubuntu2.20.04
  Encoding: UTF-8 (UTF-8)
  Process: 75363@nico-VirtualBox [127.0.1.1]
  CPUs: 4 - Mem: 3.8 GB (222.9 MB) - Swap: 2 GB (2 GB)
Nov-09 13:59:12.415 [main] DEBUG nextflow.Session - Work-dir: /home/nico/ngsmodule/my_nextflow/work [ext2/ext3]
Nov-09 13:59:12.416 [main] DEBUG nextflow.Session - Script base path does not exist or is not a directory: /home/nico/ngsmodule/my_nextflow/bin
Nov-09 13:59:12.428 [main] DEBUG nextflow.executor.ExecutorFactory - Extension executors providers=[]
Nov-09 13:59:12.440 [main] DEBUG nextflow.Session - Observer factory: DefaultObserverFactory
Nov-09 13:59:12.547 [main] DEBUG nextflow.Session - Session start invoked
Nov-09 13:59:13.001 [main] DEBUG nextflow.script.ScriptRunner - > Launching execution
Nov-09 13:59:13.008 [main] DEBUG nextflow.Session - Workflow process names [dsl1]: count_word, calculate_total, split_file
Nov-09 13:59:13.079 [main] DEBUG nextflow.executor.ExecutorFactory - << taskConfig executor: null
Nov-09 13:59:13.079 [main] DEBUG nextflow.executor.ExecutorFactory - >> processorType: 'local'
Nov-09 13:59:13.084 [main] DEBUG nextflow.executor.Executor - [warm up] executor > local
Nov-09 13:59:13.089 [main] DEBUG n.processor.LocalPollingMonitor - Creating local task monitor for executor 'local' > cpus=4; memory=3.8 GB; capacity=4; pollInterval=100ms; dumpInterval=5m
Nov-09 13:59:13.150 [main] DEBUG nextflow.Session - Session aborted -- Cause: No such property: infile for class: nextflow.script.params.FileInParam
Nov-09 13:59:13.169 [main] ERROR nextflow.cli.Launcher - @unknown
groovy.lang.MissingPropertyException: No such property: infile for class: nextflow.script.params.FileInParam
	at java.base/jdk.internal.reflect.NativeConstructorAccessorImpl.newInstance0(Native Method)
	at java.base/jdk.internal.reflect.NativeConstructorAccessorImpl.newInstance(NativeConstructorAccessorImpl.java:62)
	at java.base/jdk.internal.reflect.DelegatingConstructorAccessorImpl.newInstance(DelegatingConstructorAccessorImpl.java:45)
	at java.base/java.lang.reflect.Constructor.newInstance(Constructor.java:490)
	at org.codehaus.groovy.reflection.CachedConstructor.invoke(CachedConstructor.java:72)
	at org.codehaus.groovy.runtime.callsite.ConstructorSite$ConstructorSiteNoUnwrapNoCoerce.callConstructor(ConstructorSite.java:105)
	at org.codehaus.groovy.runtime.callsite.CallSiteArray.defaultCallConstructor(CallSiteArray.java:59)
	at org.codehaus.groovy.runtime.callsite.AbstractCallSite.callConstructor(AbstractCallSite.java:263)
	at org.codehaus.groovy.runtime.callsite.AbstractCallSite.callConstructor(AbstractCallSite.java:286)
	at nextflow.script.params.BaseParam.getScriptVar(BaseParam.groovy:122)
	at nextflow.script.params.BaseParam.getScriptVar(BaseParam.groovy:128)
	at java.base/jdk.internal.reflect.NativeMethodAccessorImpl.invoke0(Native Method)
	at java.base/jdk.internal.reflect.NativeMethodAccessorImpl.invoke(NativeMethodAccessorImpl.java:62)
	at java.base/jdk.internal.reflect.DelegatingMethodAccessorImpl.invoke(DelegatingMethodAccessorImpl.java:43)
	at java.base/java.lang.reflect.Method.invoke(Method.java:566)
	at org.codehaus.groovy.runtime.callsite.PlainObjectMetaMethodSite.doInvoke(PlainObjectMetaMethodSite.java:43)
	at org.codehaus.groovy.runtime.callsite.PogoMetaMethodSite$PogoCachedMethodSiteNoUnwrapNoCoerce.invoke(PogoMetaMethodSite.java:193)
	at org.codehaus.groovy.runtime.callsite.PogoMetaMethodSite.callCurrent(PogoMetaMethodSite.java:61)
	at org.codehaus.groovy.runtime.callsite.CallSiteArray.defaultCallCurrent(CallSiteArray.java:51)
	at org.codehaus.groovy.runtime.callsite.AbstractCallSite.callCurrent(AbstractCallSite.java:171)
	at org.codehaus.groovy.runtime.callsite.AbstractCallSite.callCurrent(AbstractCallSite.java:185)
	at nextflow.script.params.BaseInParam.lazyInit(BaseInParam.groovy:127)
	at nextflow.script.params.BaseParam.init(BaseParam.groovy:102)
	at java.base/jdk.internal.reflect.NativeMethodAccessorImpl.invoke0(Native Method)
	at java.base/jdk.internal.reflect.NativeMethodAccessorImpl.invoke(NativeMethodAccessorImpl.java:62)
	at java.base/jdk.internal.reflect.DelegatingMethodAccessorImpl.invoke(DelegatingMethodAccessorImpl.java:43)
	at java.base/java.lang.reflect.Method.invoke(Method.java:566)
	at org.codehaus.groovy.runtime.callsite.PlainObjectMetaMethodSite.doInvoke(PlainObjectMetaMethodSite.java:43)
	at org.codehaus.groovy.runtime.callsite.PogoMetaMethodSite$PogoCachedMethodSiteNoUnwrapNoCoerce.invoke(PogoMetaMethodSite.java:193)
	at org.codehaus.groovy.runtime.callsite.PogoMetaMethodSite.callCurrent(PogoMetaMethodSite.java:61)
	at org.codehaus.groovy.runtime.callsite.CallSiteArray.defaultCallCurrent(CallSiteArray.java:51)
	at org.codehaus.groovy.runtime.callsite.AbstractCallSite.callCurrent(AbstractCallSite.java:171)
	at org.codehaus.groovy.runtime.callsite.AbstractCallSite.callCurrent(AbstractCallSite.java:176)
	at nextflow.script.params.BaseInParam.getInChannel(BaseInParam.groovy:54)
	at java.base/jdk.internal.reflect.NativeMethodAccessorImpl.invoke0(Native Method)
	at java.base/jdk.internal.reflect.NativeMethodAccessorImpl.invoke(NativeMethodAccessorImpl.java:62)
	at java.base/jdk.internal.reflect.DelegatingMethodAccessorImpl.invoke(DelegatingMethodAccessorImpl.java:43)
	at java.base/java.lang.reflect.Method.invoke(Method.java:566)
	at org.codehaus.groovy.reflection.CachedMethod.invoke(CachedMethod.java:107)
	at groovy.lang.MetaMethod.doMethodInvoke(MetaMethod.java:323)
	at org.codehaus.groovy.runtime.metaclass.MethodMetaProperty$GetBeanMethodMetaProperty.getProperty(MethodMetaProperty.java:76)
	at org.codehaus.groovy.runtime.callsite.GetEffectivePogoPropertySite.getProperty(GetEffectivePogoPropertySite.java:85)
	at org.codehaus.groovy.runtime.callsite.AbstractCallSite.callGetProperty(AbstractCallSite.java:329)
	at nextflow.script.params.InputsList.allScalarInputs(InputsList.groovy:59)
	at nextflow.script.params.InputsList$allScalarInputs$0.call(Unknown Source)
	at org.codehaus.groovy.runtime.callsite.CallSiteArray.defaultCall(CallSiteArray.java:47)
	at org.codehaus.groovy.runtime.callsite.AbstractCallSite.call(AbstractCallSite.java:125)
	at org.codehaus.groovy.runtime.callsite.AbstractCallSite.call(AbstractCallSite.java:130)
	at nextflow.processor.TaskProcessor.run(TaskProcessor.groovy:388)
	at nextflow.processor.TaskProcessor$run.call(Unknown Source)
	at org.codehaus.groovy.runtime.callsite.CallSiteArray.defaultCall(CallSiteArray.java:47)
	at org.codehaus.groovy.runtime.callsite.AbstractCallSite.call(AbstractCallSite.java:125)
	at org.codehaus.groovy.runtime.callsite.AbstractCallSite.call(AbstractCallSite.java:130)
	at nextflow.script.BaseScript.process(BaseScript.groovy:116)
	at java.base/jdk.internal.reflect.NativeMethodAccessorImpl.invoke0(Native Method)
	at java.base/jdk.internal.reflect.NativeMethodAccessorImpl.invoke(NativeMethodAccessorImpl.java:62)
	at java.base/jdk.internal.reflect.DelegatingMethodAccessorImpl.invoke(DelegatingMethodAccessorImpl.java:43)
	at java.base/java.lang.reflect.Method.invoke(Method.java:566)
	at org.codehaus.groovy.runtime.callsite.PlainObjectMetaMethodSite.doInvoke(PlainObjectMetaMethodSite.java:43)
	at org.codehaus.groovy.runtime.callsite.PogoMetaMethodSite$PogoCachedMethodSiteNoUnwrapNoCoerce.invoke(PogoMetaMethodSite.java:193)
	at org.codehaus.groovy.runtime.callsite.PogoMetaMethodSite.callCurrent(PogoMetaMethodSite.java:61)
	at org.codehaus.groovy.runtime.callsite.CallSiteArray.defaultCallCurrent(CallSiteArray.java:51)
	at org.codehaus.groovy.runtime.callsite.AbstractCallSite.callCurrent(AbstractCallSite.java:171)
	at org.codehaus.groovy.runtime.callsite.AbstractCallSite.callCurrent(AbstractCallSite.java:194)
	at Script_a65fbdc8.runScript(Script_a65fbdc8:3)
	at nextflow.script.BaseScript.runDsl1(BaseScript.groovy:164)
	at nextflow.script.BaseScript.run(BaseScript.groovy:200)
	at nextflow.script.ScriptParser.runScript(ScriptParser.groovy:221)
	at nextflow.script.ScriptRunner.run(ScriptRunner.groovy:212)
	at nextflow.script.ScriptRunner.execute(ScriptRunner.groovy:120)
	at nextflow.cli.CmdRun.run(CmdRun.groovy:302)
	at nextflow.cli.Launcher.run(Launcher.groovy:475)
	at nextflow.cli.Launcher.main(Launcher.groovy:657)
