Nov-09 14:06:51.911 [main] DEBUG nextflow.cli.Launcher - $> nextflow ./startcodon2.nf --infile ../cq-examples/data/sequences.fasta --word TAG --word2 TAA --word3 TGA --outdir /home/nico/ngsmodule/my_nextflow/sequence_count
Nov-09 14:06:52.040 [main] INFO  nextflow.cli.CmdRun - N E X T F L O W  ~  version 21.04.3
Nov-09 14:06:52.065 [main] INFO  nextflow.cli.CmdRun - Launching `./startcodon2.nf` [magical_chandrasekhar] - revision: b6ea91b7cd
Nov-09 14:06:52.094 [main] DEBUG nextflow.config.ConfigBuilder - Found config local: /home/nico/ngsmodule/my_nextflow/nextflow.config
Nov-09 14:06:52.095 [main] DEBUG nextflow.config.ConfigBuilder - Parsing config file: /home/nico/ngsmodule/my_nextflow/nextflow.config
Nov-09 14:06:52.120 [main] DEBUG nextflow.config.ConfigBuilder - Applying config profile: `standard`
Nov-09 14:06:52.762 [main] DEBUG nextflow.plugin.PluginsFacade - Setting up plugin manager > mode=prod; plugins-dir=/home/nico/.nextflow/plugins
Nov-09 14:06:52.764 [main] DEBUG nextflow.plugin.PluginsFacade - Plugins default=[]
Nov-09 14:06:52.766 [main] DEBUG nextflow.plugin.PluginsFacade - Plugins local root: .nextflow/plr/empty
Nov-09 14:06:52.773 [main] INFO  org.pf4j.DefaultPluginStatusProvider - Enabled plugins: []
Nov-09 14:06:52.774 [main] INFO  org.pf4j.DefaultPluginStatusProvider - Disabled plugins: []
Nov-09 14:06:52.778 [main] INFO  org.pf4j.DefaultPluginManager - PF4J version 3.4.1 in 'deployment' mode
Nov-09 14:06:52.788 [main] INFO  org.pf4j.AbstractPluginManager - No plugins
Nov-09 14:06:52.850 [main] DEBUG nextflow.Session - Session uuid: 276ed430-f31c-467b-8c82-9e4b5b42509f
Nov-09 14:06:52.850 [main] DEBUG nextflow.Session - Run name: magical_chandrasekhar
Nov-09 14:06:52.851 [main] DEBUG nextflow.Session - Executor pool size: 4
Nov-09 14:06:52.890 [main] DEBUG nextflow.cli.CmdRun - 
  Version: 21.04.3 build 5560
  Created: 21-07-2021 15:09 UTC (17:09 CEST)
  System: Linux 5.11.0-38-generic
  Runtime: Groovy 3.0.7 on OpenJDK 64-Bit Server VM 11.0.11+9-Ubuntu-0ubuntu2.20.04
  Encoding: UTF-8 (UTF-8)
  Process: 76005@nico-VirtualBox [127.0.1.1]
  CPUs: 4 - Mem: 3.8 GB (204.7 MB) - Swap: 2 GB (2 GB)
Nov-09 14:06:52.911 [main] DEBUG nextflow.Session - Work-dir: /home/nico/ngsmodule/my_nextflow/work [ext2/ext3]
Nov-09 14:06:52.911 [main] DEBUG nextflow.Session - Script base path does not exist or is not a directory: /home/nico/ngsmodule/my_nextflow/bin
Nov-09 14:06:52.923 [main] DEBUG nextflow.executor.ExecutorFactory - Extension executors providers=[]
Nov-09 14:06:52.934 [main] DEBUG nextflow.Session - Observer factory: DefaultObserverFactory
Nov-09 14:06:53.036 [main] DEBUG nextflow.Session - Session start invoked
Nov-09 14:06:53.462 [main] DEBUG nextflow.script.ScriptRunner - > Launching execution
Nov-09 14:06:53.499 [main] DEBUG nextflow.Session - Workflow process names [dsl2]: count_word, calculate_total, split_file
Nov-09 14:06:53.591 [main] DEBUG nextflow.executor.ExecutorFactory - << taskConfig executor: null
Nov-09 14:06:53.592 [main] DEBUG nextflow.executor.ExecutorFactory - >> processorType: 'local'
Nov-09 14:06:53.597 [main] DEBUG nextflow.executor.Executor - [warm up] executor > local
Nov-09 14:06:53.602 [main] DEBUG n.processor.LocalPollingMonitor - Creating local task monitor for executor 'local' > cpus=4; memory=3.8 GB; capacity=4; pollInterval=100ms; dumpInterval=5m
Nov-09 14:06:53.730 [main] DEBUG nextflow.executor.ExecutorFactory - << taskConfig executor: null
Nov-09 14:06:53.731 [main] DEBUG nextflow.executor.ExecutorFactory - >> processorType: 'local'
Nov-09 14:06:53.771 [main] DEBUG nextflow.executor.ExecutorFactory - << taskConfig executor: null
Nov-09 14:06:53.771 [main] DEBUG nextflow.executor.ExecutorFactory - >> processorType: 'local'
Nov-09 14:06:53.773 [main] DEBUG nextflow.Session - Ignite dataflow network (4)
Nov-09 14:06:53.779 [main] DEBUG nextflow.processor.TaskProcessor - Starting process > split_file
Nov-09 14:06:53.780 [main] DEBUG nextflow.processor.TaskProcessor - Starting process > count_word
Nov-09 14:06:53.781 [main] DEBUG nextflow.processor.TaskProcessor - Starting process > calculate_total
Nov-09 14:06:53.781 [main] DEBUG nextflow.script.ScriptRunner - > Await termination 
Nov-09 14:06:53.782 [main] DEBUG nextflow.Session - Session await
Nov-09 14:06:53.961 [Task submitter] DEBUG nextflow.executor.LocalTaskHandler - Launch cmd line: /bin/bash -ue .command.run
Nov-09 14:06:53.967 [Task submitter] INFO  nextflow.Session - [0b/e8e184] Submitted process > split_file (1)
Nov-09 14:06:53.995 [Task monitor] DEBUG n.processor.TaskPollingMonitor - Task completed > TaskHandler[id: 1; name: split_file (1); status: COMPLETED; exit: 0; error: -; workDir: /home/nico/ngsmodule/my_nextflow/work/0b/e8e1847062c1c82ae80835a5b58062]
Nov-09 14:06:54.032 [Task submitter] DEBUG nextflow.executor.LocalTaskHandler - Launch cmd line: /bin/bash -ue .command.run
Nov-09 14:06:54.033 [Task submitter] INFO  nextflow.Session - [20/e13d3c] Submitted process > count_word (2)
Nov-09 14:06:54.040 [Task submitter] DEBUG nextflow.executor.LocalTaskHandler - Launch cmd line: /bin/bash -ue .command.run
Nov-09 14:06:54.041 [Task submitter] INFO  nextflow.Session - [18/7f48ea] Submitted process > count_word (1)
Nov-09 14:06:54.048 [Task submitter] DEBUG nextflow.executor.LocalTaskHandler - Launch cmd line: /bin/bash -ue .command.run
Nov-09 14:06:54.049 [Task submitter] INFO  nextflow.Session - [4e/622117] Submitted process > count_word (3)
Nov-09 14:06:54.054 [Task submitter] DEBUG nextflow.executor.LocalTaskHandler - Launch cmd line: /bin/bash -ue .command.run
Nov-09 14:06:54.054 [Task submitter] INFO  nextflow.Session - [bd/4cabe4] Submitted process > count_word (4)
Nov-09 14:06:54.081 [Task monitor] DEBUG n.processor.TaskPollingMonitor - Task completed > TaskHandler[id: 2; name: count_word (1); status: COMPLETED; exit: 0; error: -; workDir: /home/nico/ngsmodule/my_nextflow/work/18/7f48eaf04c084e820188c51abd502f]
Nov-09 14:06:54.095 [Task monitor] DEBUG n.processor.TaskPollingMonitor - Task completed > TaskHandler[id: 3; name: count_word (2); status: COMPLETED; exit: 0; error: -; workDir: /home/nico/ngsmodule/my_nextflow/work/20/e13d3c2ed76f9b5d40329d5e5f9696]
Nov-09 14:06:54.109 [Task monitor] DEBUG n.processor.TaskPollingMonitor - Task completed > TaskHandler[id: 4; name: count_word (3); status: COMPLETED; exit: 0; error: -; workDir: /home/nico/ngsmodule/my_nextflow/work/4e/622117dc3f98c327f79710a9723bc3]
Nov-09 14:06:54.111 [Task monitor] DEBUG n.processor.TaskPollingMonitor - Task completed > TaskHandler[id: 5; name: count_word (4); status: COMPLETED; exit: 0; error: -; workDir: /home/nico/ngsmodule/my_nextflow/work/bd/4cabe463a132c2ac9be68458b63d3b]
Nov-09 14:06:54.129 [Task submitter] DEBUG nextflow.executor.LocalTaskHandler - Launch cmd line: /bin/bash -ue .command.run
Nov-09 14:06:54.130 [Task submitter] INFO  nextflow.Session - [70/27a82a] Submitted process > calculate_total
Nov-09 14:06:54.162 [Task monitor] DEBUG n.processor.TaskPollingMonitor - Task completed > TaskHandler[id: 6; name: calculate_total; status: COMPLETED; exit: 0; error: -; workDir: /home/nico/ngsmodule/my_nextflow/work/70/27a82a5eb07c22008e62a0e02f291b]
Nov-09 14:06:54.172 [Task monitor] DEBUG n.util.BlockingThreadExecutorFactory - Thread pool name=FileTransfer; maxThreads=12; maxQueueSize=36; keepAlive=1m
Nov-09 14:06:54.177 [main] DEBUG nextflow.Session - Session await > all process finished
Nov-09 14:06:54.178 [main] DEBUG nextflow.Session - Session await > all barriers passed
Nov-09 14:06:54.186 [main] DEBUG nextflow.trace.WorkflowStatsObserver - Workflow completed > WorkflowStats[succeededCount=6; failedCount=0; ignoredCount=0; cachedCount=0; pendingCount=0; submittedCount=0; runningCount=0; retriesCount=0; abortedCount=0; succeedDuration=70ms; failedDuration=0ms; cachedDuration=0ms;loadCpus=0; loadMemory=0; peakRunning=3; peakCpus=3; peakMemory=0; ]
Nov-09 14:06:54.317 [main] DEBUG nextflow.CacheDB - Closing CacheDB done
Nov-09 14:06:54.338 [main] DEBUG nextflow.script.ScriptRunner - > Execution complete -- Goodbye
