Nov-09 14:00:07.588 [main] DEBUG nextflow.cli.Launcher - $> nextflow ./startcodon2.nf --infile ../cq-examples/data/sequences.fasta --word TAG --word2 TAA --word3 TGA --outdir /home/nico/ngsmodule/my_nextflow/sequence_count
Nov-09 14:00:07.713 [main] INFO  nextflow.cli.CmdRun - N E X T F L O W  ~  version 21.04.3
Nov-09 14:00:07.739 [main] INFO  nextflow.cli.CmdRun - Launching `./startcodon2.nf` [stoic_varahamihira] - revision: fb02827def
Nov-09 14:00:07.773 [main] DEBUG nextflow.config.ConfigBuilder - Found config local: /home/nico/ngsmodule/my_nextflow/nextflow.config
Nov-09 14:00:07.774 [main] DEBUG nextflow.config.ConfigBuilder - Parsing config file: /home/nico/ngsmodule/my_nextflow/nextflow.config
Nov-09 14:00:07.804 [main] DEBUG nextflow.config.ConfigBuilder - Applying config profile: `standard`
Nov-09 14:00:08.476 [main] DEBUG nextflow.plugin.PluginsFacade - Setting up plugin manager > mode=prod; plugins-dir=/home/nico/.nextflow/plugins
Nov-09 14:00:08.477 [main] DEBUG nextflow.plugin.PluginsFacade - Plugins default=[]
Nov-09 14:00:08.479 [main] DEBUG nextflow.plugin.PluginsFacade - Plugins local root: .nextflow/plr/empty
Nov-09 14:00:08.487 [main] INFO  org.pf4j.DefaultPluginStatusProvider - Enabled plugins: []
Nov-09 14:00:08.488 [main] INFO  org.pf4j.DefaultPluginStatusProvider - Disabled plugins: []
Nov-09 14:00:08.492 [main] INFO  org.pf4j.DefaultPluginManager - PF4J version 3.4.1 in 'deployment' mode
Nov-09 14:00:08.502 [main] INFO  org.pf4j.AbstractPluginManager - No plugins
Nov-09 14:00:08.559 [main] DEBUG nextflow.Session - Session uuid: 549b8ed2-36ba-4831-b3f9-8368aa4487e8
Nov-09 14:00:08.559 [main] DEBUG nextflow.Session - Run name: stoic_varahamihira
Nov-09 14:00:08.559 [main] DEBUG nextflow.Session - Executor pool size: 4
Nov-09 14:00:08.596 [main] DEBUG nextflow.cli.CmdRun - 
  Version: 21.04.3 build 5560
  Created: 21-07-2021 15:09 UTC (17:09 CEST)
  System: Linux 5.11.0-38-generic
  Runtime: Groovy 3.0.7 on OpenJDK 64-Bit Server VM 11.0.11+9-Ubuntu-0ubuntu2.20.04
  Encoding: UTF-8 (UTF-8)
  Process: 75499@nico-VirtualBox [127.0.1.1]
  CPUs: 4 - Mem: 3.8 GB (221.4 MB) - Swap: 2 GB (2 GB)
Nov-09 14:00:08.617 [main] DEBUG nextflow.Session - Work-dir: /home/nico/ngsmodule/my_nextflow/work [ext2/ext3]
Nov-09 14:00:08.618 [main] DEBUG nextflow.Session - Script base path does not exist or is not a directory: /home/nico/ngsmodule/my_nextflow/bin
Nov-09 14:00:08.628 [main] DEBUG nextflow.executor.ExecutorFactory - Extension executors providers=[]
Nov-09 14:00:08.639 [main] DEBUG nextflow.Session - Observer factory: DefaultObserverFactory
Nov-09 14:00:08.738 [main] DEBUG nextflow.Session - Session start invoked
Nov-09 14:00:09.179 [main] DEBUG nextflow.script.ScriptRunner - > Launching execution
Nov-09 14:00:09.218 [main] DEBUG nextflow.Session - Workflow process names [dsl2]: count_word, calculate_total, split_file
Nov-09 14:00:09.322 [main] DEBUG nextflow.executor.ExecutorFactory - << taskConfig executor: null
Nov-09 14:00:09.322 [main] DEBUG nextflow.executor.ExecutorFactory - >> processorType: 'local'
Nov-09 14:00:09.327 [main] DEBUG nextflow.executor.Executor - [warm up] executor > local
Nov-09 14:00:09.332 [main] DEBUG n.processor.LocalPollingMonitor - Creating local task monitor for executor 'local' > cpus=4; memory=3.8 GB; capacity=4; pollInterval=100ms; dumpInterval=5m
Nov-09 14:00:09.469 [main] DEBUG nextflow.executor.ExecutorFactory - << taskConfig executor: null
Nov-09 14:00:09.469 [main] DEBUG nextflow.executor.ExecutorFactory - >> processorType: 'local'
Nov-09 14:00:09.503 [main] DEBUG nextflow.executor.ExecutorFactory - << taskConfig executor: null
Nov-09 14:00:09.503 [main] DEBUG nextflow.executor.ExecutorFactory - >> processorType: 'local'
Nov-09 14:00:09.506 [main] DEBUG nextflow.Session - Ignite dataflow network (4)
Nov-09 14:00:09.516 [main] DEBUG nextflow.processor.TaskProcessor - Starting process > split_file
Nov-09 14:00:09.519 [main] DEBUG nextflow.processor.TaskProcessor - Starting process > count_word
Nov-09 14:00:09.519 [main] DEBUG nextflow.processor.TaskProcessor - Starting process > calculate_total
Nov-09 14:00:09.520 [main] DEBUG nextflow.script.ScriptRunner - > Await termination 
Nov-09 14:00:09.524 [main] DEBUG nextflow.Session - Session await
Nov-09 14:00:09.690 [Task submitter] DEBUG nextflow.executor.LocalTaskHandler - Launch cmd line: /bin/bash -ue .command.run
Nov-09 14:00:09.699 [Task submitter] INFO  nextflow.Session - [f4/de8a23] Submitted process > split_file (1)
Nov-09 14:00:09.737 [Task monitor] DEBUG n.processor.TaskPollingMonitor - Task completed > TaskHandler[id: 1; name: split_file (1); status: COMPLETED; exit: 0; error: -; workDir: /home/nico/ngsmodule/my_nextflow/work/f4/de8a23b7294bc0f8835dc9bc3368a2]
Nov-09 14:00:09.785 [Task submitter] DEBUG nextflow.executor.LocalTaskHandler - Launch cmd line: /bin/bash -ue .command.run
Nov-09 14:00:09.786 [Task submitter] INFO  nextflow.Session - [3e/d7af77] Submitted process > count_word (1)
Nov-09 14:00:09.792 [Task submitter] DEBUG nextflow.executor.LocalTaskHandler - Launch cmd line: /bin/bash -ue .command.run
Nov-09 14:00:09.795 [Task submitter] INFO  nextflow.Session - [64/dd6021] Submitted process > count_word (4)
Nov-09 14:00:09.806 [Task submitter] DEBUG nextflow.executor.LocalTaskHandler - Launch cmd line: /bin/bash -ue .command.run
Nov-09 14:00:09.820 [Task submitter] INFO  nextflow.Session - [a1/d2a855] Submitted process > count_word (2)
Nov-09 14:00:09.832 [Task submitter] DEBUG nextflow.executor.LocalTaskHandler - Launch cmd line: /bin/bash -ue .command.run
Nov-09 14:00:09.833 [Task submitter] INFO  nextflow.Session - [fd/f44bcd] Submitted process > count_word (3)
Nov-09 14:00:09.836 [Task monitor] DEBUG n.processor.TaskPollingMonitor - Task completed > TaskHandler[id: 2; name: count_word (1); status: COMPLETED; exit: 0; error: -; workDir: /home/nico/ngsmodule/my_nextflow/work/3e/d7af7799bac9f77f23bea4a3e47f74]
Nov-09 14:00:09.859 [Task monitor] DEBUG n.processor.TaskPollingMonitor - Task completed > TaskHandler[id: 5; name: count_word (4); status: COMPLETED; exit: 0; error: -; workDir: /home/nico/ngsmodule/my_nextflow/work/64/dd6021083aceda379a6e8136279844]
Nov-09 14:00:09.864 [Task monitor] DEBUG n.processor.TaskPollingMonitor - Task completed > TaskHandler[id: 3; name: count_word (2); status: COMPLETED; exit: 0; error: -; workDir: /home/nico/ngsmodule/my_nextflow/work/a1/d2a855de37168deb9bf99815e26d41]
Nov-09 14:00:09.877 [Task monitor] DEBUG n.processor.TaskPollingMonitor - Task completed > TaskHandler[id: 4; name: count_word (3); status: COMPLETED; exit: 0; error: -; workDir: /home/nico/ngsmodule/my_nextflow/work/fd/f44bcdb0f0e8a308aacdefb8995fd3]
Nov-09 14:00:09.892 [Task submitter] DEBUG nextflow.executor.LocalTaskHandler - Launch cmd line: /bin/bash -ue .command.run
Nov-09 14:00:09.892 [Task submitter] INFO  nextflow.Session - [2f/25956c] Submitted process > calculate_total
Nov-09 14:00:09.915 [Task monitor] DEBUG n.processor.TaskPollingMonitor - Task completed > TaskHandler[id: 6; name: calculate_total; status: COMPLETED; exit: 0; error: -; workDir: /home/nico/ngsmodule/my_nextflow/work/2f/25956ce1190e38f44da845a001d80b]
Nov-09 14:00:09.926 [Task monitor] DEBUG n.util.BlockingThreadExecutorFactory - Thread pool name=FileTransfer; maxThreads=12; maxQueueSize=36; keepAlive=1m
Nov-09 14:00:09.931 [main] DEBUG nextflow.Session - Session await > all process finished
Nov-09 14:00:09.932 [main] DEBUG nextflow.Session - Session await > all barriers passed
Nov-09 14:00:09.938 [main] DEBUG nextflow.trace.WorkflowStatsObserver - Workflow completed > WorkflowStats[succeededCount=6; failedCount=0; ignoredCount=0; cachedCount=0; pendingCount=0; submittedCount=0; runningCount=0; retriesCount=0; abortedCount=0; succeedDuration=114ms; failedDuration=0ms; cachedDuration=0ms;loadCpus=0; loadMemory=0; peakRunning=3; peakCpus=3; peakMemory=0; ]
Nov-09 14:00:10.018 [main] DEBUG nextflow.CacheDB - Closing CacheDB done
Nov-09 14:00:10.048 [main] DEBUG nextflow.script.ScriptRunner - > Execution complete -- Goodbye
