Nov-09 14:08:20.491 [main] DEBUG nextflow.cli.Launcher - $> nextflow ./startcodon2.nf --infile ../cq-examples/data/sequences.fasta --word TAG --word2 TAA --word3 TGA --outdir /home/nico/ngsmodule/my_nextflow/sequence_count
Nov-09 14:08:20.618 [main] INFO  nextflow.cli.CmdRun - N E X T F L O W  ~  version 21.04.3
Nov-09 14:08:20.645 [main] INFO  nextflow.cli.CmdRun - Launching `./startcodon2.nf` [furious_marconi] - revision: 1c7fce28c4
Nov-09 14:08:20.673 [main] DEBUG nextflow.config.ConfigBuilder - Found config local: /home/nico/ngsmodule/my_nextflow/nextflow.config
Nov-09 14:08:20.674 [main] DEBUG nextflow.config.ConfigBuilder - Parsing config file: /home/nico/ngsmodule/my_nextflow/nextflow.config
Nov-09 14:08:20.705 [main] DEBUG nextflow.config.ConfigBuilder - Applying config profile: `standard`
Nov-09 14:08:21.390 [main] DEBUG nextflow.plugin.PluginsFacade - Setting up plugin manager > mode=prod; plugins-dir=/home/nico/.nextflow/plugins
Nov-09 14:08:21.391 [main] DEBUG nextflow.plugin.PluginsFacade - Plugins default=[]
Nov-09 14:08:21.393 [main] DEBUG nextflow.plugin.PluginsFacade - Plugins local root: .nextflow/plr/empty
Nov-09 14:08:21.400 [main] INFO  org.pf4j.DefaultPluginStatusProvider - Enabled plugins: []
Nov-09 14:08:21.401 [main] INFO  org.pf4j.DefaultPluginStatusProvider - Disabled plugins: []
Nov-09 14:08:21.405 [main] INFO  org.pf4j.DefaultPluginManager - PF4J version 3.4.1 in 'deployment' mode
Nov-09 14:08:21.414 [main] INFO  org.pf4j.AbstractPluginManager - No plugins
Nov-09 14:08:21.472 [main] DEBUG nextflow.Session - Session uuid: f5cb6691-53b8-4198-8f23-9f06db599a47
Nov-09 14:08:21.472 [main] DEBUG nextflow.Session - Run name: furious_marconi
Nov-09 14:08:21.473 [main] DEBUG nextflow.Session - Executor pool size: 4
Nov-09 14:08:21.513 [main] DEBUG nextflow.cli.CmdRun - 
  Version: 21.04.3 build 5560
  Created: 21-07-2021 15:09 UTC (17:09 CEST)
  System: Linux 5.11.0-38-generic
  Runtime: Groovy 3.0.7 on OpenJDK 64-Bit Server VM 11.0.11+9-Ubuntu-0ubuntu2.20.04
  Encoding: UTF-8 (UTF-8)
  Process: 76228@nico-VirtualBox [127.0.1.1]
  CPUs: 4 - Mem: 3.8 GB (211.5 MB) - Swap: 2 GB (2 GB)
Nov-09 14:08:21.535 [main] DEBUG nextflow.Session - Work-dir: /home/nico/ngsmodule/my_nextflow/work [ext2/ext3]
Nov-09 14:08:21.535 [main] DEBUG nextflow.Session - Script base path does not exist or is not a directory: /home/nico/ngsmodule/my_nextflow/bin
Nov-09 14:08:21.546 [main] DEBUG nextflow.executor.ExecutorFactory - Extension executors providers=[]
Nov-09 14:08:21.557 [main] DEBUG nextflow.Session - Observer factory: DefaultObserverFactory
Nov-09 14:08:21.663 [main] DEBUG nextflow.Session - Session start invoked
Nov-09 14:08:22.096 [main] DEBUG nextflow.script.ScriptRunner - > Launching execution
Nov-09 14:08:22.136 [main] DEBUG nextflow.Session - Workflow process names [dsl2]: count_word, calculate_total, split_file
Nov-09 14:08:22.227 [main] DEBUG nextflow.executor.ExecutorFactory - << taskConfig executor: null
Nov-09 14:08:22.227 [main] DEBUG nextflow.executor.ExecutorFactory - >> processorType: 'local'
Nov-09 14:08:22.238 [main] DEBUG nextflow.executor.Executor - [warm up] executor > local
Nov-09 14:08:22.243 [main] DEBUG n.processor.LocalPollingMonitor - Creating local task monitor for executor 'local' > cpus=4; memory=3.8 GB; capacity=4; pollInterval=100ms; dumpInterval=5m
Nov-09 14:08:22.377 [main] DEBUG nextflow.executor.ExecutorFactory - << taskConfig executor: null
Nov-09 14:08:22.377 [main] DEBUG nextflow.executor.ExecutorFactory - >> processorType: 'local'
Nov-09 14:08:22.400 [main] DEBUG nextflow.executor.ExecutorFactory - << taskConfig executor: null
Nov-09 14:08:22.400 [main] DEBUG nextflow.executor.ExecutorFactory - >> processorType: 'local'
Nov-09 14:08:22.403 [main] DEBUG nextflow.Session - Ignite dataflow network (4)
Nov-09 14:08:22.410 [main] DEBUG nextflow.processor.TaskProcessor - Starting process > split_file
Nov-09 14:08:22.410 [main] DEBUG nextflow.processor.TaskProcessor - Starting process > count_word
Nov-09 14:08:22.412 [main] DEBUG nextflow.processor.TaskProcessor - Starting process > calculate_total
Nov-09 14:08:22.414 [main] DEBUG nextflow.script.ScriptRunner - > Await termination 
Nov-09 14:08:22.414 [main] DEBUG nextflow.Session - Session await
Nov-09 14:08:22.586 [Task submitter] DEBUG nextflow.executor.LocalTaskHandler - Launch cmd line: /bin/bash -ue .command.run
Nov-09 14:08:22.597 [Task submitter] INFO  nextflow.Session - [1d/be82d3] Submitted process > split_file (1)
Nov-09 14:08:22.626 [Task monitor] DEBUG n.processor.TaskPollingMonitor - Task completed > TaskHandler[id: 1; name: split_file (1); status: COMPLETED; exit: 0; error: -; workDir: /home/nico/ngsmodule/my_nextflow/work/1d/be82d3bb08aa64cc99c17b7e190f9b]
Nov-09 14:08:22.660 [Task submitter] DEBUG nextflow.executor.LocalTaskHandler - Launch cmd line: /bin/bash -ue .command.run
Nov-09 14:08:22.664 [Task submitter] INFO  nextflow.Session - [c7/b800c6] Submitted process > count_word (1)
Nov-09 14:08:22.673 [Task submitter] DEBUG nextflow.executor.LocalTaskHandler - Launch cmd line: /bin/bash -ue .command.run
Nov-09 14:08:22.673 [Task submitter] INFO  nextflow.Session - [ba/8d67e3] Submitted process > count_word (3)
Nov-09 14:08:22.678 [Task submitter] DEBUG nextflow.executor.LocalTaskHandler - Launch cmd line: /bin/bash -ue .command.run
Nov-09 14:08:22.678 [Task submitter] INFO  nextflow.Session - [48/908257] Submitted process > count_word (2)
Nov-09 14:08:22.683 [Task submitter] DEBUG nextflow.executor.LocalTaskHandler - Launch cmd line: /bin/bash -ue .command.run
Nov-09 14:08:22.684 [Task submitter] INFO  nextflow.Session - [83/eb2e0f] Submitted process > count_word (4)
Nov-09 14:08:22.713 [Task monitor] DEBUG n.processor.TaskPollingMonitor - Task completed > TaskHandler[id: 2; name: count_word (1); status: COMPLETED; exit: 0; error: -; workDir: /home/nico/ngsmodule/my_nextflow/work/c7/b800c689d3102ba599778077cb6b42]
Nov-09 14:08:22.724 [Task monitor] DEBUG n.processor.TaskPollingMonitor - Task completed > TaskHandler[id: 4; name: count_word (3); status: COMPLETED; exit: 0; error: -; workDir: /home/nico/ngsmodule/my_nextflow/work/ba/8d67e3cbb902a35aa72e4dcbd517ae]
Nov-09 14:08:22.734 [Task monitor] DEBUG n.processor.TaskPollingMonitor - Task completed > TaskHandler[id: 5; name: count_word (4); status: COMPLETED; exit: 0; error: -; workDir: /home/nico/ngsmodule/my_nextflow/work/83/eb2e0f247970ab7087a67f4910fccc]
Nov-09 14:08:22.835 [Task monitor] DEBUG n.processor.TaskPollingMonitor - Task completed > TaskHandler[id: 3; name: count_word (2); status: COMPLETED; exit: 0; error: -; workDir: /home/nico/ngsmodule/my_nextflow/work/48/9082572559f87225e032858afd572e]
Nov-09 14:08:22.861 [Task submitter] DEBUG nextflow.executor.LocalTaskHandler - Launch cmd line: /bin/bash -ue .command.run
Nov-09 14:08:22.861 [Task submitter] INFO  nextflow.Session - [03/6dcb6a] Submitted process > calculate_total
Nov-09 14:08:22.880 [Task monitor] DEBUG n.processor.TaskPollingMonitor - Task completed > TaskHandler[id: 6; name: calculate_total; status: COMPLETED; exit: 0; error: -; workDir: /home/nico/ngsmodule/my_nextflow/work/03/6dcb6a369b96db73936b74e7dcb01f]
Nov-09 14:08:22.890 [Task monitor] DEBUG n.util.BlockingThreadExecutorFactory - Thread pool name=FileTransfer; maxThreads=12; maxQueueSize=36; keepAlive=1m
Nov-09 14:08:22.894 [main] DEBUG nextflow.Session - Session await > all process finished
Nov-09 14:08:22.895 [main] DEBUG nextflow.Session - Session await > all barriers passed
Nov-09 14:08:22.902 [main] DEBUG nextflow.trace.WorkflowStatsObserver - Workflow completed > WorkflowStats[succeededCount=6; failedCount=0; ignoredCount=0; cachedCount=0; pendingCount=0; submittedCount=0; runningCount=0; retriesCount=0; abortedCount=0; succeedDuration=150ms; failedDuration=0ms; cachedDuration=0ms;loadCpus=0; loadMemory=0; peakRunning=3; peakCpus=3; peakMemory=0; ]
Nov-09 14:08:22.911 [main] DEBUG nextflow.CacheDB - Closing CacheDB done
Nov-09 14:08:22.929 [main] DEBUG nextflow.script.ScriptRunner - > Execution complete -- Goodbye
