Nov-09 13:59:30.247 [main] DEBUG nextflow.cli.Launcher - $> nextflow ./startcodon2.nf --infile ../cq-examples/data/sequences.fasta --word TAG --word2 TAA --word3 TGA --outdir /home/nico/ngsmodule/my_nextflow/sequence_count
Nov-09 13:59:30.399 [main] INFO  nextflow.cli.CmdRun - N E X T F L O W  ~  version 21.04.3
Nov-09 13:59:30.433 [main] INFO  nextflow.cli.CmdRun - Launching `./startcodon2.nf` [chaotic_elion] - revision: aa1b1fbf3f
Nov-09 13:59:30.470 [main] DEBUG nextflow.config.ConfigBuilder - Found config local: /home/nico/ngsmodule/my_nextflow/nextflow.config
Nov-09 13:59:30.473 [main] DEBUG nextflow.config.ConfigBuilder - Parsing config file: /home/nico/ngsmodule/my_nextflow/nextflow.config
Nov-09 13:59:30.501 [main] DEBUG nextflow.config.ConfigBuilder - Applying config profile: `standard`
Nov-09 13:59:31.181 [main] DEBUG nextflow.plugin.PluginsFacade - Setting up plugin manager > mode=prod; plugins-dir=/home/nico/.nextflow/plugins
Nov-09 13:59:31.183 [main] DEBUG nextflow.plugin.PluginsFacade - Plugins default=[]
Nov-09 13:59:31.186 [main] DEBUG nextflow.plugin.PluginsFacade - Plugins local root: .nextflow/plr/empty
Nov-09 13:59:31.195 [main] INFO  org.pf4j.DefaultPluginStatusProvider - Enabled plugins: []
Nov-09 13:59:31.196 [main] INFO  org.pf4j.DefaultPluginStatusProvider - Disabled plugins: []
Nov-09 13:59:31.200 [main] INFO  org.pf4j.DefaultPluginManager - PF4J version 3.4.1 in 'deployment' mode
Nov-09 13:59:31.212 [main] INFO  org.pf4j.AbstractPluginManager - No plugins
Nov-09 13:59:31.281 [main] DEBUG nextflow.Session - Session uuid: 556d8853-5afc-4574-ad49-b9e5ac3ec3a1
Nov-09 13:59:31.282 [main] DEBUG nextflow.Session - Run name: chaotic_elion
Nov-09 13:59:31.282 [main] DEBUG nextflow.Session - Executor pool size: 4
Nov-09 13:59:31.324 [main] DEBUG nextflow.cli.CmdRun - 
  Version: 21.04.3 build 5560
  Created: 21-07-2021 15:09 UTC (17:09 CEST)
  System: Linux 5.11.0-38-generic
  Runtime: Groovy 3.0.7 on OpenJDK 64-Bit Server VM 11.0.11+9-Ubuntu-0ubuntu2.20.04
  Encoding: UTF-8 (UTF-8)
  Process: 75430@nico-VirtualBox [127.0.1.1]
  CPUs: 4 - Mem: 3.8 GB (220.9 MB) - Swap: 2 GB (2 GB)
Nov-09 13:59:31.350 [main] DEBUG nextflow.Session - Work-dir: /home/nico/ngsmodule/my_nextflow/work [ext2/ext3]
Nov-09 13:59:31.350 [main] DEBUG nextflow.Session - Script base path does not exist or is not a directory: /home/nico/ngsmodule/my_nextflow/bin
Nov-09 13:59:31.362 [main] DEBUG nextflow.executor.ExecutorFactory - Extension executors providers=[]
Nov-09 13:59:31.373 [main] DEBUG nextflow.Session - Observer factory: DefaultObserverFactory
Nov-09 13:59:31.483 [main] DEBUG nextflow.Session - Session start invoked
Nov-09 13:59:31.915 [main] DEBUG nextflow.script.ScriptRunner - > Launching execution
Nov-09 13:59:31.950 [main] DEBUG nextflow.Session - Workflow process names [dsl2]: count_word, calculate_total, split_file
Nov-09 13:59:32.040 [main] DEBUG nextflow.executor.ExecutorFactory - << taskConfig executor: null
Nov-09 13:59:32.041 [main] DEBUG nextflow.executor.ExecutorFactory - >> processorType: 'local'
Nov-09 13:59:32.046 [main] DEBUG nextflow.executor.Executor - [warm up] executor > local
Nov-09 13:59:32.051 [main] DEBUG n.processor.LocalPollingMonitor - Creating local task monitor for executor 'local' > cpus=4; memory=3.8 GB; capacity=4; pollInterval=100ms; dumpInterval=5m
Nov-09 13:59:32.194 [main] DEBUG nextflow.Session - Session aborted -- Cause: Process `count_word` declares 4 input channels but 2 were specified
Nov-09 13:59:32.215 [main] DEBUG nextflow.Session - The following nodes are still active:
  [operator] flatten

Nov-09 13:59:32.228 [main] ERROR nextflow.cli.Launcher - Process `count_word` declares 4 input channels but 2 were specified
nextflow.exception.ScriptRuntimeException: Process `count_word` declares 4 input channels but 2 were specified
	at nextflow.script.ProcessDef.run(ProcessDef.groovy:171)
	at nextflow.script.BindableDef.invoke_a(BindableDef.groovy:52)
	at nextflow.script.ComponentDef.invoke_o(ComponentDef.groovy:41)
	at nextflow.script.WorkflowBinding.invokeMethod(WorkflowBinding.groovy:95)
	at org.codehaus.groovy.runtime.metaclass.ClosureMetaClass.invokeOnDelegationObjects(ClosureMetaClass.java:397)
	at org.codehaus.groovy.runtime.metaclass.ClosureMetaClass.invokeMethod(ClosureMetaClass.java:339)
	at org.codehaus.groovy.runtime.callsite.PogoMetaClassSite.callCurrent(PogoMetaClassSite.java:61)
	at org.codehaus.groovy.runtime.callsite.CallSiteArray.defaultCallCurrent(CallSiteArray.java:51)
	at org.codehaus.groovy.runtime.callsite.AbstractCallSite.callCurrent(AbstractCallSite.java:171)
	at org.codehaus.groovy.runtime.callsite.AbstractCallSite.callCurrent(AbstractCallSite.java:194)
	at Script_91c25df9$_runScript_closure4$_closure10.doCall(Script_91c25df9:52)
	at java.base/jdk.internal.reflect.NativeMethodAccessorImpl.invoke0(Native Method)
	at java.base/jdk.internal.reflect.NativeMethodAccessorImpl.invoke(NativeMethodAccessorImpl.java:62)
	at java.base/jdk.internal.reflect.DelegatingMethodAccessorImpl.invoke(DelegatingMethodAccessorImpl.java:43)
	at java.base/java.lang.reflect.Method.invoke(Method.java:566)
	at org.codehaus.groovy.reflection.CachedMethod.invoke(CachedMethod.java:107)
	at groovy.lang.MetaMethod.doMethodInvoke(MetaMethod.java:323)
	at org.codehaus.groovy.runtime.metaclass.ClosureMetaClass.invokeMethod(ClosureMetaClass.java:263)
	at groovy.lang.MetaClassImpl.invokeMethod(MetaClassImpl.java:1035)
	at groovy.lang.Closure.call(Closure.java:412)
	at groovy.lang.Closure.call(Closure.java:406)
	at nextflow.script.WorkflowDef.run0(WorkflowDef.groovy:186)
	at nextflow.script.WorkflowDef.run(WorkflowDef.groovy:170)
	at nextflow.script.BindableDef.invoke_a(BindableDef.groovy:52)
	at nextflow.script.ChainableDef$invoke_a.call(Unknown Source)
	at org.codehaus.groovy.runtime.callsite.CallSiteArray.defaultCall(CallSiteArray.java:47)
	at org.codehaus.groovy.runtime.callsite.AbstractCallSite.call(AbstractCallSite.java:125)
	at org.codehaus.groovy.runtime.callsite.AbstractCallSite.call(AbstractCallSite.java:139)
	at nextflow.script.BaseScript.runDsl2(BaseScript.groovy:191)
	at nextflow.script.BaseScript.run(BaseScript.groovy:200)
	at nextflow.script.ScriptParser.runScript(ScriptParser.groovy:221)
	at nextflow.script.ScriptRunner.run(ScriptRunner.groovy:212)
	at nextflow.script.ScriptRunner.execute(ScriptRunner.groovy:120)
	at nextflow.cli.CmdRun.run(CmdRun.groovy:302)
	at nextflow.cli.Launcher.run(Launcher.groovy:475)
	at nextflow.cli.Launcher.main(Launcher.groovy:657)
