Nov-09 14:54:59.725 [main] DEBUG nextflow.cli.Launcher - $> nextflow ./startcodon2.nf --infile ../cq-examples/data/sequences.fasta --outdir /home/nico/ngsmodule/my_nextflow/sequence_count
Nov-09 14:54:59.880 [main] INFO  nextflow.cli.CmdRun - N E X T F L O W  ~  version 21.04.3
Nov-09 14:54:59.910 [main] INFO  nextflow.cli.CmdRun - Launching `./startcodon2.nf` [trusting_curran] - revision: 4eec0fb517
Nov-09 14:54:59.931 [main] DEBUG nextflow.config.ConfigBuilder - Found config local: /home/nico/ngsmodule/my_nextflow/nextflow.config
Nov-09 14:54:59.932 [main] DEBUG nextflow.config.ConfigBuilder - Parsing config file: /home/nico/ngsmodule/my_nextflow/nextflow.config
Nov-09 14:54:59.966 [main] DEBUG nextflow.config.ConfigBuilder - Applying config profile: `standard`
Nov-09 14:55:00.687 [main] DEBUG nextflow.plugin.PluginsFacade - Setting up plugin manager > mode=prod; plugins-dir=/home/nico/.nextflow/plugins
Nov-09 14:55:00.688 [main] DEBUG nextflow.plugin.PluginsFacade - Plugins default=[]
Nov-09 14:55:00.691 [main] DEBUG nextflow.plugin.PluginsFacade - Plugins local root: .nextflow/plr/empty
Nov-09 14:55:00.699 [main] INFO  org.pf4j.DefaultPluginStatusProvider - Enabled plugins: []
Nov-09 14:55:00.701 [main] INFO  org.pf4j.DefaultPluginStatusProvider - Disabled plugins: []
Nov-09 14:55:00.706 [main] INFO  org.pf4j.DefaultPluginManager - PF4J version 3.4.1 in 'deployment' mode
Nov-09 14:55:00.716 [main] INFO  org.pf4j.AbstractPluginManager - No plugins
Nov-09 14:55:00.785 [main] DEBUG nextflow.Session - Session uuid: d37d620f-23b9-48a0-b0e0-b27b99aea3fc
Nov-09 14:55:00.785 [main] DEBUG nextflow.Session - Run name: trusting_curran
Nov-09 14:55:00.790 [main] DEBUG nextflow.Session - Executor pool size: 4
Nov-09 14:55:00.830 [main] DEBUG nextflow.cli.CmdRun - 
  Version: 21.04.3 build 5560
  Created: 21-07-2021 15:09 UTC (17:09 CEST)
  System: Linux 5.11.0-38-generic
  Runtime: Groovy 3.0.7 on OpenJDK 64-Bit Server VM 11.0.11+9-Ubuntu-0ubuntu2.20.04
  Encoding: UTF-8 (UTF-8)
  Process: 76933@nico-VirtualBox [127.0.1.1]
  CPUs: 4 - Mem: 3.8 GB (115.6 MB) - Swap: 2 GB (2 GB)
Nov-09 14:55:00.851 [main] DEBUG nextflow.Session - Work-dir: /home/nico/ngsmodule/my_nextflow/work [ext2/ext3]
Nov-09 14:55:00.851 [main] DEBUG nextflow.Session - Script base path does not exist or is not a directory: /home/nico/ngsmodule/my_nextflow/bin
Nov-09 14:55:00.863 [main] DEBUG nextflow.executor.ExecutorFactory - Extension executors providers=[]
Nov-09 14:55:00.875 [main] DEBUG nextflow.Session - Observer factory: DefaultObserverFactory
Nov-09 14:55:00.988 [main] DEBUG nextflow.Session - Session start invoked
Nov-09 14:55:01.506 [main] DEBUG nextflow.script.ScriptRunner - > Launching execution
Nov-09 14:55:01.567 [main] DEBUG nextflow.Session - Workflow process names [dsl2]: calculate_stop, calculate_start, split_file, start_codon_count, stop_codon_count
Nov-09 14:55:01.740 [main] DEBUG nextflow.executor.ExecutorFactory - << taskConfig executor: null
Nov-09 14:55:01.741 [main] DEBUG nextflow.executor.ExecutorFactory - >> processorType: 'local'
Nov-09 14:55:01.753 [main] DEBUG nextflow.executor.Executor - [warm up] executor > local
Nov-09 14:55:01.761 [main] DEBUG n.processor.LocalPollingMonitor - Creating local task monitor for executor 'local' > cpus=4; memory=3.8 GB; capacity=4; pollInterval=100ms; dumpInterval=5m
Nov-09 14:55:01.924 [main] DEBUG nextflow.executor.ExecutorFactory - << taskConfig executor: null
Nov-09 14:55:01.924 [main] DEBUG nextflow.executor.ExecutorFactory - >> processorType: 'local'
Nov-09 14:55:01.958 [main] DEBUG nextflow.executor.ExecutorFactory - << taskConfig executor: null
Nov-09 14:55:01.959 [main] DEBUG nextflow.executor.ExecutorFactory - >> processorType: 'local'
Nov-09 14:55:01.962 [main] DEBUG nextflow.Session - Ignite dataflow network (4)
Nov-09 14:55:01.970 [main] DEBUG nextflow.processor.TaskProcessor - Starting process > split_file
Nov-09 14:55:01.971 [main] DEBUG nextflow.processor.TaskProcessor - Starting process > start_codon_count
Nov-09 14:55:01.972 [main] DEBUG nextflow.processor.TaskProcessor - Starting process > calculate_start
Nov-09 14:55:01.973 [main] DEBUG nextflow.script.ScriptRunner - > Await termination 
Nov-09 14:55:01.973 [main] DEBUG nextflow.Session - Session await
Nov-09 14:55:02.163 [Task submitter] DEBUG nextflow.executor.LocalTaskHandler - Launch cmd line: /bin/bash -ue .command.run
Nov-09 14:55:02.169 [Task submitter] INFO  nextflow.Session - [05/d36ede] Submitted process > split_file (1)
Nov-09 14:55:02.198 [Task monitor] DEBUG n.processor.TaskPollingMonitor - Task completed > TaskHandler[id: 1; name: split_file (1); status: COMPLETED; exit: 0; error: -; workDir: /home/nico/ngsmodule/my_nextflow/work/05/d36edef10da38409f9d0c57c0def00]
Nov-09 14:55:02.256 [Task submitter] DEBUG nextflow.executor.LocalTaskHandler - Launch cmd line: /bin/bash -ue .command.run
Nov-09 14:55:02.258 [Task submitter] INFO  nextflow.Session - [4e/a9244a] Submitted process > start_codon_count (1)
Nov-09 14:55:02.276 [Task submitter] DEBUG nextflow.executor.LocalTaskHandler - Launch cmd line: /bin/bash -ue .command.run
Nov-09 14:55:02.279 [Task submitter] INFO  nextflow.Session - [dd/6c4fc2] Submitted process > start_codon_count (3)
Nov-09 14:55:02.284 [Task submitter] DEBUG nextflow.executor.LocalTaskHandler - Launch cmd line: /bin/bash -ue .command.run
Nov-09 14:55:02.285 [Task submitter] INFO  nextflow.Session - [47/73cd0f] Submitted process > start_codon_count (2)
Nov-09 14:55:02.291 [Task submitter] DEBUG nextflow.executor.LocalTaskHandler - Launch cmd line: /bin/bash -ue .command.run
Nov-09 14:55:02.292 [Task submitter] INFO  nextflow.Session - [41/0209b8] Submitted process > start_codon_count (4)
Nov-09 14:55:02.307 [Task monitor] DEBUG n.processor.TaskPollingMonitor - Task completed > TaskHandler[id: 2; name: start_codon_count (1); status: COMPLETED; exit: 0; error: -; workDir: /home/nico/ngsmodule/my_nextflow/work/4e/a9244a63027b29da69e7c26a2e82b9]
Nov-09 14:55:02.308 [Task monitor] DEBUG nextflow.processor.TaskProcessor - Process `start_codon_count (1)` is unable to find [UnixPath]: `/home/nico/ngsmodule/my_nextflow/work/4e/a9244a63027b29da69e7c26a2e82b9/sequences.fasta.line00.wordcount` (pattern: `sequences.fasta.line00.wordcount`)
Nov-09 14:55:02.351 [Task monitor] ERROR nextflow.processor.TaskProcessor - Error executing process > 'start_codon_count (1)'

Caused by:
  Missing output file(s) `sequences.fasta.line00.wordcount` expected by process `start_codon_count (1)`

Command executed:

  tail - 1 sequences.fasta.line00 | grep -i -o ATG sequences.fasta.line00 >> grepresult || true
  cat grepresult | wc -l > sequences.fasta.line00.startcount

Command exit status:
  0

Command output:
  (empty)

Command error:
  tail: cannot open '1' for reading: No such file or directory

Work dir:
  /home/nico/ngsmodule/my_nextflow/work/4e/a9244a63027b29da69e7c26a2e82b9

Tip: you can try to figure out what's wrong by changing to the process work dir and showing the script file named `.command.sh`
Nov-09 14:55:02.375 [Task monitor] DEBUG nextflow.Session - Session aborted -- Cause: Missing output file(s) `sequences.fasta.line00.wordcount` expected by process `start_codon_count (1)`
Nov-09 14:55:02.400 [Task monitor] DEBUG nextflow.Session - The following nodes are still active:
[process] calculate_start
  status=ACTIVE
  port 0: (value) OPEN  ; channel: infiles
  port 1: (cntrl) -     ; channel: $

Nov-09 14:55:02.403 [main] DEBUG nextflow.Session - Session await > all process finished
Nov-09 14:55:02.403 [main] DEBUG nextflow.Session - Session await > all barriers passed
Nov-09 14:55:02.410 [main] WARN  n.processor.TaskPollingMonitor - Killing pending tasks (3)
Nov-09 14:55:02.413 [Task monitor] DEBUG n.processor.TaskPollingMonitor - Task completed > TaskHandler[id: 4; name: start_codon_count (3); status: COMPLETED; exit: 0; error: -; workDir: /home/nico/ngsmodule/my_nextflow/work/dd/6c4fc215de5703d353b24961096afc]
Nov-09 14:55:02.413 [Task monitor] DEBUG nextflow.processor.TaskProcessor - Process `start_codon_count (3)` is unable to find [UnixPath]: `/home/nico/ngsmodule/my_nextflow/work/dd/6c4fc215de5703d353b24961096afc/sequences.fasta.line02.wordcount` (pattern: `sequences.fasta.line02.wordcount`)
Nov-09 14:55:02.416 [Task monitor] DEBUG n.processor.TaskPollingMonitor - Task completed > TaskHandler[id: 3; name: start_codon_count (2); status: COMPLETED; exit: 0; error: -; workDir: /home/nico/ngsmodule/my_nextflow/work/47/73cd0ff6ceeb2fdaf02bd82ab2903e]
Nov-09 14:55:02.417 [Task monitor] DEBUG nextflow.processor.TaskProcessor - Process `start_codon_count (2)` is unable to find [UnixPath]: `/home/nico/ngsmodule/my_nextflow/work/47/73cd0ff6ceeb2fdaf02bd82ab2903e/sequences.fasta.line01.wordcount` (pattern: `sequences.fasta.line01.wordcount`)
Nov-09 14:55:02.419 [main] DEBUG nextflow.executor.LocalTaskHandler - Unable to kill start_codon_count (2) -- command: kill -TERM 77048; exit: 1 
 bash: line 0: kill: (77048) - No such process

Nov-09 14:55:02.421 [Task monitor] DEBUG n.processor.TaskPollingMonitor - Task completed > TaskHandler[id: 5; name: start_codon_count (4); status: COMPLETED; exit: 0; error: -; workDir: /home/nico/ngsmodule/my_nextflow/work/41/0209b8e07577221fbbcf7cebb249fd]
Nov-09 14:55:02.423 [Task monitor] DEBUG nextflow.processor.TaskProcessor - Process `start_codon_count (4)` is unable to find [UnixPath]: `/home/nico/ngsmodule/my_nextflow/work/41/0209b8e07577221fbbcf7cebb249fd/sequences.fasta.line03.wordcount` (pattern: `sequences.fasta.line03.wordcount`)
Nov-09 14:55:02.427 [main] DEBUG nextflow.executor.LocalTaskHandler - Unable to kill start_codon_count (4) -- command: kill -TERM 77056; exit: 1 
 bash: line 0: kill: (77056) - No such process

Nov-09 14:55:02.430 [main] DEBUG nextflow.trace.WorkflowStatsObserver - Workflow completed > WorkflowStats[succeededCount=1; failedCount=6; ignoredCount=0; cachedCount=0; pendingCount=0; submittedCount=0; runningCount=-2; retriesCount=0; abortedCount=0; succeedDuration=5ms; failedDuration=380ms; cachedDuration=0ms;loadCpus=-2; loadMemory=0; peakRunning=3; peakCpus=3; peakMemory=0; ]
Nov-09 14:55:02.617 [main] DEBUG nextflow.CacheDB - Closing CacheDB done
Nov-09 14:55:02.644 [main] DEBUG nextflow.script.ScriptRunner - > Execution complete -- Goodbye
