Nov-09 15:08:42.573 [main] DEBUG nextflow.cli.Launcher - $> nextflow ./startcodon2.nf --infile ../cq-examples/data/sequences.fasta --outdir /home/nico/ngsmodule/my_nextflow/sequence_count
Nov-09 15:08:42.730 [main] INFO  nextflow.cli.CmdRun - N E X T F L O W  ~  version 21.04.3
Nov-09 15:08:42.764 [main] INFO  nextflow.cli.CmdRun - Launching `./startcodon2.nf` [intergalactic_ptolemy] - revision: 53bb3f55ad
Nov-09 15:08:42.787 [main] DEBUG nextflow.config.ConfigBuilder - Found config local: /home/nico/ngsmodule/my_nextflow/nextflow.config
Nov-09 15:08:42.788 [main] DEBUG nextflow.config.ConfigBuilder - Parsing config file: /home/nico/ngsmodule/my_nextflow/nextflow.config
Nov-09 15:08:42.826 [main] DEBUG nextflow.config.ConfigBuilder - Applying config profile: `standard`
Nov-09 15:08:43.590 [main] DEBUG nextflow.plugin.PluginsFacade - Setting up plugin manager > mode=prod; plugins-dir=/home/nico/.nextflow/plugins
Nov-09 15:08:43.592 [main] DEBUG nextflow.plugin.PluginsFacade - Plugins default=[]
Nov-09 15:08:43.594 [main] DEBUG nextflow.plugin.PluginsFacade - Plugins local root: .nextflow/plr/empty
Nov-09 15:08:43.603 [main] INFO  org.pf4j.DefaultPluginStatusProvider - Enabled plugins: []
Nov-09 15:08:43.604 [main] INFO  org.pf4j.DefaultPluginStatusProvider - Disabled plugins: []
Nov-09 15:08:43.608 [main] INFO  org.pf4j.DefaultPluginManager - PF4J version 3.4.1 in 'deployment' mode
Nov-09 15:08:43.619 [main] INFO  org.pf4j.AbstractPluginManager - No plugins
Nov-09 15:08:43.699 [main] DEBUG nextflow.Session - Session uuid: c658ffdb-d28f-4c3c-a7f6-39d088e8f42c
Nov-09 15:08:43.700 [main] DEBUG nextflow.Session - Run name: intergalactic_ptolemy
Nov-09 15:08:43.700 [main] DEBUG nextflow.Session - Executor pool size: 4
Nov-09 15:08:43.736 [main] DEBUG nextflow.cli.CmdRun - 
  Version: 21.04.3 build 5560
  Created: 21-07-2021 15:09 UTC (17:09 CEST)
  System: Linux 5.11.0-38-generic
  Runtime: Groovy 3.0.7 on OpenJDK 64-Bit Server VM 11.0.11+9-Ubuntu-0ubuntu2.20.04
  Encoding: UTF-8 (UTF-8)
  Process: 77142@nico-VirtualBox [127.0.1.1]
  CPUs: 4 - Mem: 3.8 GB (205.9 MB) - Swap: 2 GB (2 GB)
Nov-09 15:08:43.758 [main] DEBUG nextflow.Session - Work-dir: /home/nico/ngsmodule/my_nextflow/work [ext2/ext3]
Nov-09 15:08:43.758 [main] DEBUG nextflow.Session - Script base path does not exist or is not a directory: /home/nico/ngsmodule/my_nextflow/bin
Nov-09 15:08:43.769 [main] DEBUG nextflow.executor.ExecutorFactory - Extension executors providers=[]
Nov-09 15:08:43.782 [main] DEBUG nextflow.Session - Observer factory: DefaultObserverFactory
Nov-09 15:08:43.892 [main] DEBUG nextflow.Session - Session start invoked
Nov-09 15:08:44.420 [main] DEBUG nextflow.script.ScriptRunner - > Launching execution
Nov-09 15:08:44.461 [main] DEBUG nextflow.Session - Workflow process names [dsl2]: calculate_stop, calculate_start, split_file, start_codon_count, stop_codon_count
Nov-09 15:08:44.566 [main] DEBUG nextflow.executor.ExecutorFactory - << taskConfig executor: null
Nov-09 15:08:44.566 [main] DEBUG nextflow.executor.ExecutorFactory - >> processorType: 'local'
Nov-09 15:08:44.571 [main] DEBUG nextflow.executor.Executor - [warm up] executor > local
Nov-09 15:08:44.576 [main] DEBUG n.processor.LocalPollingMonitor - Creating local task monitor for executor 'local' > cpus=4; memory=3.8 GB; capacity=4; pollInterval=100ms; dumpInterval=5m
Nov-09 15:08:44.741 [main] DEBUG nextflow.executor.ExecutorFactory - << taskConfig executor: null
Nov-09 15:08:44.742 [main] DEBUG nextflow.executor.ExecutorFactory - >> processorType: 'local'
Nov-09 15:08:44.767 [main] DEBUG nextflow.executor.ExecutorFactory - << taskConfig executor: null
Nov-09 15:08:44.767 [main] DEBUG nextflow.executor.ExecutorFactory - >> processorType: 'local'
Nov-09 15:08:44.770 [main] DEBUG nextflow.Session - Ignite dataflow network (4)
Nov-09 15:08:44.778 [main] DEBUG nextflow.processor.TaskProcessor - Starting process > split_file
Nov-09 15:08:44.778 [main] DEBUG nextflow.processor.TaskProcessor - Starting process > start_codon_count
Nov-09 15:08:44.779 [main] DEBUG nextflow.processor.TaskProcessor - Starting process > calculate_start
Nov-09 15:08:44.779 [main] DEBUG nextflow.script.ScriptRunner - > Await termination 
Nov-09 15:08:44.779 [main] DEBUG nextflow.Session - Session await
Nov-09 15:08:44.984 [Task submitter] DEBUG nextflow.executor.LocalTaskHandler - Launch cmd line: /bin/bash -ue .command.run
Nov-09 15:08:44.995 [Task submitter] INFO  nextflow.Session - [a4/8d9694] Submitted process > split_file (1)
Nov-09 15:08:45.029 [Task monitor] DEBUG n.processor.TaskPollingMonitor - Task completed > TaskHandler[id: 1; name: split_file (1); status: COMPLETED; exit: 0; error: -; workDir: /home/nico/ngsmodule/my_nextflow/work/a4/8d9694d52667c3146122fe170dbc76]
Nov-09 15:08:45.100 [Task submitter] DEBUG nextflow.executor.LocalTaskHandler - Launch cmd line: /bin/bash -ue .command.run
Nov-09 15:08:45.104 [Task submitter] INFO  nextflow.Session - [1f/4e9917] Submitted process > start_codon_count (1)
Nov-09 15:08:45.121 [Task submitter] DEBUG nextflow.executor.LocalTaskHandler - Launch cmd line: /bin/bash -ue .command.run
Nov-09 15:08:45.133 [Task monitor] DEBUG n.processor.TaskPollingMonitor - Task completed > TaskHandler[id: 2; name: start_codon_count (1); status: COMPLETED; exit: 0; error: -; workDir: /home/nico/ngsmodule/my_nextflow/work/1f/4e9917d4af211489316aa18a848990]
Nov-09 15:08:45.132 [Task submitter] INFO  nextflow.Session - [54/0493d0] Submitted process > start_codon_count (3)
Nov-09 15:08:45.145 [Task submitter] DEBUG nextflow.executor.LocalTaskHandler - Launch cmd line: /bin/bash -ue .command.run
Nov-09 15:08:45.150 [Task submitter] INFO  nextflow.Session - [2e/763333] Submitted process > start_codon_count (4)
Nov-09 15:08:45.154 [Task submitter] DEBUG nextflow.executor.LocalTaskHandler - Launch cmd line: /bin/bash -ue .command.run
Nov-09 15:08:45.173 [Task submitter] INFO  nextflow.Session - [3b/531186] Submitted process > start_codon_count (2)
Nov-09 15:08:45.178 [Task monitor] DEBUG n.processor.TaskPollingMonitor - Task completed > TaskHandler[id: 4; name: start_codon_count (3); status: COMPLETED; exit: 0; error: -; workDir: /home/nico/ngsmodule/my_nextflow/work/54/0493d0bf83dd1689f1ff4a80cf7da3]
Nov-09 15:08:45.183 [Task monitor] DEBUG n.processor.TaskPollingMonitor - Task completed > TaskHandler[id: 5; name: start_codon_count (4); status: COMPLETED; exit: 0; error: -; workDir: /home/nico/ngsmodule/my_nextflow/work/2e/7633338d7b8c484453194c3cd4269f]
Nov-09 15:08:45.287 [Task monitor] DEBUG n.processor.TaskPollingMonitor - Task completed > TaskHandler[id: 3; name: start_codon_count (2); status: COMPLETED; exit: 0; error: -; workDir: /home/nico/ngsmodule/my_nextflow/work/3b/5311869e1f980e585f1401412e4001]
Nov-09 15:08:45.305 [Task submitter] DEBUG nextflow.executor.LocalTaskHandler - Launch cmd line: /bin/bash -ue .command.run
Nov-09 15:08:45.306 [Task submitter] INFO  nextflow.Session - [97/99acc7] Submitted process > calculate_start
Nov-09 15:08:45.326 [Task monitor] DEBUG n.processor.TaskPollingMonitor - Task completed > TaskHandler[id: 6; name: calculate_start; status: COMPLETED; exit: 0; error: -; workDir: /home/nico/ngsmodule/my_nextflow/work/97/99acc7025bf3d628a64429fe35a7da]
Nov-09 15:08:45.336 [Task monitor] DEBUG n.util.BlockingThreadExecutorFactory - Thread pool name=FileTransfer; maxThreads=12; maxQueueSize=36; keepAlive=1m
Nov-09 15:08:45.341 [main] DEBUG nextflow.Session - Session await > all process finished
Nov-09 15:08:45.342 [main] DEBUG nextflow.Session - Session await > all barriers passed
Nov-09 15:08:45.349 [main] DEBUG nextflow.trace.WorkflowStatsObserver - Workflow completed > WorkflowStats[succeededCount=6; failedCount=0; ignoredCount=0; cachedCount=0; pendingCount=0; submittedCount=0; runningCount=0; retriesCount=0; abortedCount=0; succeedDuration=55ms; failedDuration=0ms; cachedDuration=0ms;loadCpus=0; loadMemory=0; peakRunning=1; peakCpus=1; peakMemory=0; ]
Nov-09 15:08:45.373 [main] DEBUG nextflow.CacheDB - Closing CacheDB done
Nov-09 15:08:45.391 [main] DEBUG nextflow.script.ScriptRunner - > Execution complete -- Goodbye
