Nov-09 14:00:54.333 [main] DEBUG nextflow.cli.Launcher - $> nextflow ./startcodon2.nf --infile ../cq-examples/data/sequences.fasta --word TAG --word2 TAA --word3 TGA --outdir /home/nico/ngsmodule/my_nextflow/sequence_count
Nov-09 14:00:54.471 [main] INFO  nextflow.cli.CmdRun - N E X T F L O W  ~  version 21.04.3
Nov-09 14:00:54.498 [main] INFO  nextflow.cli.CmdRun - Launching `./startcodon2.nf` [cheeky_pesquet] - revision: 54b6d8c6ba
Nov-09 14:00:54.528 [main] DEBUG nextflow.config.ConfigBuilder - Found config local: /home/nico/ngsmodule/my_nextflow/nextflow.config
Nov-09 14:00:54.529 [main] DEBUG nextflow.config.ConfigBuilder - Parsing config file: /home/nico/ngsmodule/my_nextflow/nextflow.config
Nov-09 14:00:54.564 [main] DEBUG nextflow.config.ConfigBuilder - Applying config profile: `standard`
Nov-09 14:00:55.213 [main] DEBUG nextflow.plugin.PluginsFacade - Setting up plugin manager > mode=prod; plugins-dir=/home/nico/.nextflow/plugins
Nov-09 14:00:55.215 [main] DEBUG nextflow.plugin.PluginsFacade - Plugins default=[]
Nov-09 14:00:55.218 [main] DEBUG nextflow.plugin.PluginsFacade - Plugins local root: .nextflow/plr/empty
Nov-09 14:00:55.226 [main] INFO  org.pf4j.DefaultPluginStatusProvider - Enabled plugins: []
Nov-09 14:00:55.227 [main] INFO  org.pf4j.DefaultPluginStatusProvider - Disabled plugins: []
Nov-09 14:00:55.230 [main] INFO  org.pf4j.DefaultPluginManager - PF4J version 3.4.1 in 'deployment' mode
Nov-09 14:00:55.239 [main] INFO  org.pf4j.AbstractPluginManager - No plugins
Nov-09 14:00:55.299 [main] DEBUG nextflow.Session - Session uuid: a5da805f-bddc-4b46-b7d8-ce474e59e01c
Nov-09 14:00:55.299 [main] DEBUG nextflow.Session - Run name: cheeky_pesquet
Nov-09 14:00:55.299 [main] DEBUG nextflow.Session - Executor pool size: 4
Nov-09 14:00:55.339 [main] DEBUG nextflow.cli.CmdRun - 
  Version: 21.04.3 build 5560
  Created: 21-07-2021 15:09 UTC (17:09 CEST)
  System: Linux 5.11.0-38-generic
  Runtime: Groovy 3.0.7 on OpenJDK 64-Bit Server VM 11.0.11+9-Ubuntu-0ubuntu2.20.04
  Encoding: UTF-8 (UTF-8)
  Process: 75743@nico-VirtualBox [127.0.1.1]
  CPUs: 4 - Mem: 3.8 GB (223.5 MB) - Swap: 2 GB (2 GB)
Nov-09 14:00:55.358 [main] DEBUG nextflow.Session - Work-dir: /home/nico/ngsmodule/my_nextflow/work [ext2/ext3]
Nov-09 14:00:55.358 [main] DEBUG nextflow.Session - Script base path does not exist or is not a directory: /home/nico/ngsmodule/my_nextflow/bin
Nov-09 14:00:55.370 [main] DEBUG nextflow.executor.ExecutorFactory - Extension executors providers=[]
Nov-09 14:00:55.382 [main] DEBUG nextflow.Session - Observer factory: DefaultObserverFactory
Nov-09 14:00:55.479 [main] DEBUG nextflow.Session - Session start invoked
Nov-09 14:00:55.912 [main] DEBUG nextflow.script.ScriptRunner - > Launching execution
Nov-09 14:00:55.948 [main] DEBUG nextflow.Session - Workflow process names [dsl2]: count_word, calculate_total, split_file
Nov-09 14:00:56.041 [main] DEBUG nextflow.executor.ExecutorFactory - << taskConfig executor: null
Nov-09 14:00:56.041 [main] DEBUG nextflow.executor.ExecutorFactory - >> processorType: 'local'
Nov-09 14:00:56.046 [main] DEBUG nextflow.executor.Executor - [warm up] executor > local
Nov-09 14:00:56.057 [main] DEBUG n.processor.LocalPollingMonitor - Creating local task monitor for executor 'local' > cpus=4; memory=3.8 GB; capacity=4; pollInterval=100ms; dumpInterval=5m
Nov-09 14:00:56.184 [main] DEBUG nextflow.executor.ExecutorFactory - << taskConfig executor: null
Nov-09 14:00:56.184 [main] DEBUG nextflow.executor.ExecutorFactory - >> processorType: 'local'
Nov-09 14:00:56.207 [main] DEBUG nextflow.executor.ExecutorFactory - << taskConfig executor: null
Nov-09 14:00:56.207 [main] DEBUG nextflow.executor.ExecutorFactory - >> processorType: 'local'
Nov-09 14:00:56.210 [main] DEBUG nextflow.Session - Ignite dataflow network (4)
Nov-09 14:00:56.216 [main] DEBUG nextflow.processor.TaskProcessor - Starting process > split_file
Nov-09 14:00:56.217 [main] DEBUG nextflow.processor.TaskProcessor - Starting process > count_word
Nov-09 14:00:56.217 [main] DEBUG nextflow.processor.TaskProcessor - Starting process > calculate_total
Nov-09 14:00:56.218 [main] DEBUG nextflow.script.ScriptRunner - > Await termination 
Nov-09 14:00:56.218 [main] DEBUG nextflow.Session - Session await
Nov-09 14:00:56.388 [Task submitter] DEBUG nextflow.executor.LocalTaskHandler - Launch cmd line: /bin/bash -ue .command.run
Nov-09 14:00:56.394 [Task submitter] INFO  nextflow.Session - [4e/789b91] Submitted process > split_file (1)
Nov-09 14:00:56.422 [Task monitor] DEBUG n.processor.TaskPollingMonitor - Task completed > TaskHandler[id: 1; name: split_file (1); status: COMPLETED; exit: 0; error: -; workDir: /home/nico/ngsmodule/my_nextflow/work/4e/789b91b17bc8e8ec9c1ecc76e74655]
Nov-09 14:00:56.459 [Task submitter] DEBUG nextflow.executor.LocalTaskHandler - Launch cmd line: /bin/bash -ue .command.run
Nov-09 14:00:56.460 [Task submitter] INFO  nextflow.Session - [88/1bbcce] Submitted process > count_word (2)
Nov-09 14:00:56.466 [Task submitter] DEBUG nextflow.executor.LocalTaskHandler - Launch cmd line: /bin/bash -ue .command.run
Nov-09 14:00:56.469 [Task submitter] INFO  nextflow.Session - [eb/68b4e3] Submitted process > count_word (3)
Nov-09 14:00:56.473 [Task submitter] DEBUG nextflow.executor.LocalTaskHandler - Launch cmd line: /bin/bash -ue .command.run
Nov-09 14:00:56.476 [Task submitter] INFO  nextflow.Session - [a7/20463a] Submitted process > count_word (1)
Nov-09 14:00:56.488 [Task submitter] DEBUG nextflow.executor.LocalTaskHandler - Launch cmd line: /bin/bash -ue .command.run
Nov-09 14:00:56.488 [Task submitter] INFO  nextflow.Session - [a9/891c59] Submitted process > count_word (4)
Nov-09 14:00:56.503 [Task monitor] DEBUG n.processor.TaskPollingMonitor - Task completed > TaskHandler[id: 3; name: count_word (2); status: COMPLETED; exit: 0; error: -; workDir: /home/nico/ngsmodule/my_nextflow/work/88/1bbcce6a32c097734a01814e488cc3]
Nov-09 14:00:56.521 [Task monitor] DEBUG n.processor.TaskPollingMonitor - Task completed > TaskHandler[id: 2; name: count_word (1); status: COMPLETED; exit: 0; error: -; workDir: /home/nico/ngsmodule/my_nextflow/work/a7/20463ad358dc7e92f99f44320a4d3e]
Nov-09 14:00:56.526 [Task monitor] DEBUG n.processor.TaskPollingMonitor - Task completed > TaskHandler[id: 4; name: count_word (3); status: COMPLETED; exit: 0; error: -; workDir: /home/nico/ngsmodule/my_nextflow/work/eb/68b4e378eab7171af4f5788b2def99]
Nov-09 14:00:56.541 [Task monitor] DEBUG n.processor.TaskPollingMonitor - Task completed > TaskHandler[id: 5; name: count_word (4); status: COMPLETED; exit: 0; error: -; workDir: /home/nico/ngsmodule/my_nextflow/work/a9/891c59a7b7ba07fd1dfa96e0364acc]
Nov-09 14:00:56.559 [Task submitter] DEBUG nextflow.executor.LocalTaskHandler - Launch cmd line: /bin/bash -ue .command.run
Nov-09 14:00:56.559 [Task submitter] INFO  nextflow.Session - [44/14f38b] Submitted process > calculate_total
Nov-09 14:00:56.586 [Task monitor] DEBUG n.processor.TaskPollingMonitor - Task completed > TaskHandler[id: 6; name: calculate_total; status: COMPLETED; exit: 0; error: -; workDir: /home/nico/ngsmodule/my_nextflow/work/44/14f38b6fc49c19bd820a9823efbd3b]
Nov-09 14:00:56.595 [Task monitor] DEBUG n.util.BlockingThreadExecutorFactory - Thread pool name=FileTransfer; maxThreads=12; maxQueueSize=36; keepAlive=1m
Nov-09 14:00:56.600 [main] DEBUG nextflow.Session - Session await > all process finished
Nov-09 14:00:56.602 [main] DEBUG nextflow.Session - Session await > all barriers passed
Nov-09 14:00:56.608 [main] DEBUG nextflow.trace.WorkflowStatsObserver - Workflow completed > WorkflowStats[succeededCount=6; failedCount=0; ignoredCount=0; cachedCount=0; pendingCount=0; submittedCount=0; runningCount=0; retriesCount=0; abortedCount=0; succeedDuration=67ms; failedDuration=0ms; cachedDuration=0ms;loadCpus=0; loadMemory=0; peakRunning=3; peakCpus=3; peakMemory=0; ]
Nov-09 14:00:56.764 [main] DEBUG nextflow.CacheDB - Closing CacheDB done
Nov-09 14:00:56.781 [main] DEBUG nextflow.script.ScriptRunner - > Execution complete -- Goodbye
